import threading
import time
import math
import os
import random
import re
import sys

''' do not change this code '''

count = 0
def add():
  global count
  for x in range(100000):
       count = count + 1;
  time.sleep(1)
  
'''do not change the above code '''



if __name__ == '__main__':
    input = int(input().strip())


    no_of_threads = int(input / 100000)
    
for index in range(no_of_threads):
    thread = threading.Thread(target=add, args=())
    thread.start()
    thread.join()
        
  
    
print(count)

